{
  "memoryDistribution":
  [
    {
      "name":"fnc",
      "sector": 0,
      "block": 1,
      "startByte": 0,
      "size": 8
    },
    {
      "name":"tan",
      "sector": 0,
      "block": 1,
      "startByte": 8,
      "size": 7
    },
    {
      "name":"icn",
      "sector": 0,
      "block": 2,
      "startByte": 0,
      "size": 16
    },
    {
      "name":"nameChild",
      "sector": 1,
      "block": 0,
      "startByte": 0,
      "size": 48
    },
    {
      "name":"fSurNameOfChild",
      "sector": 2,
      "block": 0,
      "startByte": 0,
      "size": 48
    },
    {
      "name":"sSurNameOfChild",
      "sector": 3,
      "block": 0,
      "startByte": 0,
      "size": 48
    },
    {
      "name":"citizenRegistration",
      "sector": 4,
      "block": 0,
      "startByte": 0,
      "size": 48
    },
    {
      "name":"gender",
      "sector": 5,
      "block": 0,
      "startByte": 0,
      "size": 1
    },
    {
      "name":"birthDate",
      "sector": 5,
      "block": 0,
      "startByte": 1,
      "size": 8
    },
    {
      "name":"birthTime",
      "sector": 5,
      "block": 0,
      "startByte": 10,
      "size": 5
    },
    {
      "name":"issuanceDate",
      "sector": 5,
      "block": 1,
      "startByte": 0,
      "size": 8
    },
    {
      "name":"idDocument",
      "sector": 5,
      "block": 2,
      "startByte": 0,
      "size": 16
    },
    {
      "name":"country",
      "sector": 6,
      "block": 0,
      "startByte": 0,
      "size": 48
    },
    {
      "name":"city",
      "sector": 7,
      "block": 0,
      "startByte": 0,
      "size": 48
    },
    {
      "name":"street",
      "sector": 8,
      "block": 0,
      "startByte": 0,
      "size": 40
    },
    {
      "name":"number",
      "sector": 8,
      "block": 2,
      "startByte": 8,
      "size": 8
    },
    {
      "name": "bNameFP",
      "sector": 9,
      "block": 0,
      "startByte": 0,
      "size": 48
    },
    {
      "name":"nameFP",
      "sector": 10,
      "block": 0,
      "startByte": 0,
      "size": 48
    },
    {
      "name":"fSurnameFP",
      "sector": 11,
      "block": 0,
      "startByte": 0,
      "size": 48
    },
    {
      "name":"sSurnameFP",
      "sector": 12,
      "block": 0,
      "startByte": 0,
      "size": 48
    },
    {
      "name":"occupationFP",
      "sector": 13,
      "block": 0,
      "startByte": 0,
      "size": 32
    },
    {
      "name":"identificationFP",
      "sector": 13,
      "block": 2,
      "startByte": 0,
      "size": 32
    },
    {
      "name":"credentialFP",
      "sector": 14,
      "block": 1,
      "startByte": 0,
      "size": 32
    },
    {
      "name":"citizenshipFP",
      "sector": 15,
      "block": 0,
      "startByte": 0,
      "size": 32
    },
    {
      "name":"genderFP",
      "sector": 15,
      "block": 2,
      "startByte": 0,
      "size": 1
    },
    {
      "name":"birthdateFP",
      "sector": 15,
      "block": 2,
      "startByte": 1,
      "size": 8
    },
    {
      "name":"citizenSatusFP",
      "sector": 16,
      "block": 0,
      "startByte": 0,
      "size": 16
    },
    {
      "name":"bNameSP",
      "sector": 16,
      "block": 1,
      "startByte": 0,
      "size": 48
    },
    {
      "name":"nameSP",
      "sector": 17,
      "block": 1,
      "startByte": 0,
      "size": 48
    },
    {
      "name":"fSurnameSP",
      "sector": 18,
      "block": 1,
      "startByte": 0,
      "size": 48
    },
    {
      "name":"sSurnameSP",
      "sector": 19,
      "block": 1,
      "startByte": 0,
      "size": 48
    },
    {
      "name":"occupationSP",
      "sector": 20,
      "block": 1,
      "startByte": 0,
      "size": 32
    },
    {
      "name":"identificationSP",
      "sector": 21,
      "block": 0,
      "startByte": 0,
      "size": 32
    },
    {
      "name":"credentialSP",
      "sector": 21,
      "block": 2,
      "startByte": 0,
      "size": 8
    },
    {
      "name":"citizenshipSP",
      "sector": 22,
      "block": 1,
      "startByte": 0,
      "size": 32
    },
    {
      "name":"genderSP",
      "sector": 23,
      "block": 0,
      "startByte": 0,
      "size": 1
    },
    {
      "name":"birthdateSP",
      "sector": 23,
      "block": 0,
      "startByte": 1,
      "size": 8
    },
    {
      "name":"citizenSatusSP",
      "sector": 23,
      "block": 1,
      "startByte": 0,
      "size": 16
    },
    {
      "name":"officerName",
      "sector": 23,
      "block": 2,
      "startByte": 0,
      "size": 64
    },
    {
      "name":"issuancePlace",
      "sector": 25,
      "block": 0,
      "startByte": 0,
      "size": 48
    },
    {
      "name":"issuanceAuthority",
      "sector": 26,
      "block": 0,
      "startByte": 0,
      "size": 48
    },
    {
      "name":"officerCountry",
      "sector": 27,
      "block": 0,
      "startByte": 0,
      "size": 48
    }
  ],
  "keysPerSector":[
    {
      "sectorNumber" : 0,
      "key" : "AAAAAAAAAAAA"
    },
    {
      "sectorNumber" : 1,
      "key" : "AAAAAAAAAAAA"
    },
    {
      "sectorNumber" : 2,
      "key" : "AAAAAAAAAAAA"
    },
    {
      "sectorNumber" : 3,
      "key" : "AAAAAAAAAAAA"
    },
    {
      "sectorNumber" : 4,
      "key" : "AAAAAAAAAAAA"
    },
    {
      "sectorNumber" : 5,
      "key" : "AAAAAAAAAAAA"
    },
    {
      "sectorNumber" : 6,
      "key" : "AAAAAAAAAAAA"
    },
    {
      "sectorNumber" : 7,
      "key" : "AAAAAAAAAAAA"
    },
    {
      "sectorNumber" : 8,
      "key" : "AAAAAAAAAAAA"
    },
    {
      "sectorNumber" : 9,
      "key" : "AAAAAAAAAAAA"
    },
    {
      "sectorNumber" : 10,
      "key" : "AAAAAAAAAAAA"
    },
    {
      "sectorNumber" : 19,
      "key" : "AAAAAAAAAAAA"
    },
    {
      "sectorNumber" : 11,
      "key" : "AAAAAAAAAAAA"
    },
    {
      "sectorNumber" : 12,
      "key" : "AAAAAAAAAAAA"
    },
    {
      "sectorNumber" : 13,
      "key" : "AAAAAAAAAAAA"
    },
    {
      "sectorNumber" : 14,
      "key" : "AAAAAAAAAAAA"
    },
    {
      "sectorNumber" : 15,
      "key" : "AAAAAAAAAAAA"
    },
    {
      "sectorNumber" : 16,
      "key" : "AAAAAAAAAAAA"
    },
    {
      "sectorNumber" : 17,
      "key" : "AAAAAAAAAAAA"
    },
    {
      "sectorNumber" : 18,
      "key" : "AAAAAAAAAAAA"
    },
    {
      "sectorNumber" : 19,
      "key" : "AAAAAAAAAAAA"
    },
    {
      "sectorNumber" : 20,
      "key" : "AAAAAAAAAAAA"
    },
    {
      "sectorNumber" : 21,
      "key" : "AAAAAAAAAAAA"
    },
    {
      "sectorNumber" : 22,
      "key" : "AAAAAAAAAAAA"
    },
    {
      "sectorNumber" : 23,
      "key" : "AAAAAAAAAAAA"
    },
    {
      "sectorNumber" : 24,
      "key" : "AAAAAAAAAAAA"
    },
    {
      "sectorNumber" : 25,
      "key" : "AAAAAAAAAAAA"
    },
    {
      "sectorNumber" : 26,
      "key" : "AAAAAAAAAAAA"
    },
    {
      "sectorNumber" : 27,
      "key" : "AAAAAAAAAAAA"
    }
  ]
}
